uP_tb.vcd
$date
	Sun Nov 22 20:53:37 2020
$end
$version
	Icarus Verilog
$end
$timescale
	1ps
$end
$scope module testbench $end
$var wire 4 ! data_bus [3:0] $end
$var wire 1 " z_flag $end
$var wire 8 # program_byte [7:0] $end
$var wire 1 $ phase $end
$var wire 4 % oprnd [3:0] $end
$var wire 4 & instr [3:0] $end
$var wire 1 ' c_flag $end
$var wire 12 ( address_RAM [11:0] $end
$var wire 4 ) accu [3:0] $end
$var wire 12 * PC [11:0] $end
$var wire 4 + FF_out [3:0] $end
$var reg 1 , clock $end
$var reg 4 - pushbuttons [3:0] $end
$var reg 1 . reset $end
$var integer 32 / immediateDelay [31:0] $end
$var integer 32 0 jumpDelay [31:0] $end
$var integer 32 1 memoryDelay [31:0] $end
$var integer 32 2 nota [31:0] $end
$scope module uPmodule $end
$var wire 1 , clock $end
$var wire 4 3 data_bus [3:0] $end
$var wire 4 4 pushbuttons [3:0] $end
$var wire 1 . reset $end
$var wire 1 " z_flag $end
$var wire 8 5 program_byte [7:0] $end
$var wire 1 $ phase $end
$var wire 4 6 oprnd [3:0] $end
$var wire 4 7 instr [3:0] $end
$var wire 1 ' c_flag $end
$var wire 12 8 address_RAM [11:0] $end
$var wire 4 9 accu [3:0] $end
$var wire 12 : PC [11:0] $end
$var wire 4 ; FF_out [3:0] $end
$var wire 13 < Control_Signals [12:0] $end
$var wire 2 = C_Z [1:0] $end
$var wire 7 > Address [6:0] $end
$var wire 4 ? ALU_out [3:0] $end
$var wire 2 @ ALU_flags [1:0] $end
$scope module M_ALU $end
$var wire 4 A B [3:0] $end
$var wire 3 B S [2:0] $end
$var wire 4 C A [3:0] $end
$var reg 2 D C_Z [1:0] $end
$var reg 4 E Y [3:0] $end
$var reg 5 F result [4:0] $end
$upscope $end
$scope module M_Accumulator $end
$var wire 4 G D [3:0] $end
$var wire 1 , clk $end
$var wire 1 H enable $end
$var wire 1 . reset $end
$var wire 4 I Accu [3:0] $end
$scope module FF1 $end
$var wire 1 J D $end
$var wire 1 , clk $end
$var wire 1 H enable $end
$var wire 1 . reset $end
$var reg 1 K Q $end
$upscope $end
$scope module FF2 $end
$var wire 1 L D $end
$var wire 1 , clk $end
$var wire 1 H enable $end
$var wire 1 . reset $end
$var reg 1 M Q $end
$upscope $end
$scope module FF3 $end
$var wire 1 N D $end
$var wire 1 , clk $end
$var wire 1 H enable $end
$var wire 1 . reset $end
$var reg 1 O Q $end
$upscope $end
$scope module FF4 $end
$var wire 1 P D $end
$var wire 1 , clk $end
$var wire 1 H enable $end
$var wire 1 . reset $end
$var reg 1 Q Q $end
$upscope $end
$upscope $end
$scope module M_Bus_Driver1 $end
$var wire 4 R data_bus [3:0] $end
$var wire 1 S enable $end
$var wire 4 T oprnd [3:0] $end
$upscope $end
$scope module M_Bus_Driver2 $end
$var wire 4 U data_bus [3:0] $end
$var wire 1 V enable $end
$var wire 4 W oprnd [3:0] $end
$upscope $end
$scope module M_Decode $end
$var wire 7 X Address [6:0] $end
$var reg 13 Y Control_Signals [12:0] $end
$upscope $end
$scope module M_FF_out $end
$var wire 4 Z D [3:0] $end
$var wire 1 , clk $end
$var wire 1 [ enable $end
$var wire 1 . reset $end
$var wire 4 \ FF_out [3:0] $end
$scope module FF1 $end
$var wire 1 ] D $end
$var wire 1 , clk $end
$var wire 1 [ enable $end
$var wire 1 . reset $end
$var reg 1 ^ Q $end
$upscope $end
$scope module FF2 $end
$var wire 1 _ D $end
$var wire 1 , clk $end
$var wire 1 [ enable $end
$var wire 1 . reset $end
$var reg 1 ` Q $end
$upscope $end
$scope module FF3 $end
$var wire 1 a D $end
$var wire 1 , clk $end
$var wire 1 [ enable $end
$var wire 1 . reset $end
$var reg 1 b Q $end
$upscope $end
$scope module FF4 $end
$var wire 1 c D $end
$var wire 1 , clk $end
$var wire 1 [ enable $end
$var wire 1 . reset $end
$var reg 1 d Q $end
$upscope $end
$upscope $end
$scope module M_Fetch $end
$var wire 1 , clk $end
$var wire 1 e enable $end
$var wire 1 . reset $end
$var wire 8 f program_byte [7:0] $end
$var wire 4 g oprnd [3:0] $end
$var wire 4 h instr [3:0] $end
$scope module FF1 $end
$var wire 1 i D $end
$var wire 1 , clk $end
$var wire 1 e enable $end
$var wire 1 . reset $end
$var reg 1 j Q $end
$upscope $end
$scope module FF2 $end
$var wire 1 k D $end
$var wire 1 , clk $end
$var wire 1 e enable $end
$var wire 1 . reset $end
$var reg 1 l Q $end
$upscope $end
$scope module FF3 $end
$var wire 1 m D $end
$var wire 1 , clk $end
$var wire 1 e enable $end
$var wire 1 . reset $end
$var reg 1 n Q $end
$upscope $end
$scope module FF4 $end
$var wire 1 o D $end
$var wire 1 , clk $end
$var wire 1 e enable $end
$var wire 1 . reset $end
$var reg 1 p Q $end
$upscope $end
$scope module FF5 $end
$var wire 1 q D $end
$var wire 1 , clk $end
$var wire 1 e enable $end
$var wire 1 . reset $end
$var reg 1 r Q $end
$upscope $end
$scope module FF6 $end
$var wire 1 s D $end
$var wire 1 , clk $end
$var wire 1 e enable $end
$var wire 1 . reset $end
$var reg 1 t Q $end
$upscope $end
$scope module FF7 $end
$var wire 1 u D $end
$var wire 1 , clk $end
$var wire 1 e enable $end
$var wire 1 . reset $end
$var reg 1 v Q $end
$upscope $end
$scope module FF8 $end
$var wire 1 w D $end
$var wire 1 , clk $end
$var wire 1 e enable $end
$var wire 1 . reset $end
$var reg 1 x Q $end
$upscope $end
$upscope $end
$scope module M_Flags $end
$var wire 2 y D [1:0] $end
$var wire 1 , clk $end
$var wire 1 z enable $end
$var wire 1 . reset $end
$var wire 2 { C_Z [1:0] $end
$scope module FF1 $end
$var wire 1 | D $end
$var wire 1 , clk $end
$var wire 1 z enable $end
$var wire 1 . reset $end
$var reg 1 } Q $end
$upscope $end
$scope module FF2 $end
$var wire 1 ~ D $end
$var wire 1 , clk $end
$var wire 1 z enable $end
$var wire 1 . reset $end
$var reg 1 !" Q $end
$upscope $end
$upscope $end
$scope module M_In $end
$var wire 4 "" data_bus [3:0] $end
$var wire 1 #" enable $end
$var wire 4 $" oprnd [3:0] $end
$upscope $end
$scope module M_Phase $end
$var wire 1 , clk $end
$var wire 1 %" enable $end
$var wire 1 . reset $end
$var wire 1 $ phase $end
$scope module F1 $end
$var wire 1 &" D $end
$var wire 1 , clk $end
$var wire 1 %" enable $end
$var wire 1 . reset $end
$var reg 1 $ Q $end
$upscope $end
$upscope $end
$scope module M_Program_Counter $end
$var wire 1 , clk $end
$var wire 1 '" enable $end
$var wire 1 (" load $end
$var wire 12 )" loadPC [11:0] $end
$var wire 1 . reset $end
$var reg 12 *" PC [11:0] $end
$upscope $end
$scope module M_Program_ROM $end
$var wire 12 +" PC [11:0] $end
$var wire 8 ," program_byte [7:0] $end
$upscope $end
$scope module M_RAM $end
$var wire 12 -" address_RAM [11:0] $end
$var wire 4 ." data [3:0] $end
$var wire 1 /" enable $end
$var wire 1 0" read $end
$var wire 1 1" write $end
$var reg 4 2" data_out [3:0] $end
$upscope $end
$upscope $end
$upscope $end
$enddefinitions $end
#0
$dumpvars
bx 2"
x1"
x0"
x/"
bx ."
bx -"
bx ,"
bx +"
bx *"
bx )"
x("
x'"
x&"
1%"
b110 $"
x#"
bx ""
x!"
x~
x}
x|
bx {
xz
bx y
xx
xw
xv
xu
xt
xs
xr
xq
xp
xo
xn
xm
xl
xk
xj
xi
bx h
bx g
bx f
xe
xd
xc
xb
xa
x`
x_
x^
x]
bx \
x[
bx Z
bx Y
bx X
bx W
xV
bx U
bx T
xS
bx R
xQ
xP
xO
xN
xM
xL
xK
xJ
bx I
xH
bx G
bx F
bx E
bx D
bx C
bx B
bx A
bx @
bx ?
bx >
bx =
bx <
bx ;
bx :
bx 9
bx 8
bx 7
bx 6
bx 5
b110 4
bx 3
b0 2
b100010100 1
b1010010000 0
b10000 /
0.
b110 -
0,
bx +
bx *
bx )
bx (
x'
bx &
bx %
x$
bx #
x"
bx !
$end
#2
0]
0_
0a
0c
b0 !
b0 3
b0 A
b0 R
b0 U
b0 Z
b0 ""
b0 ."
0|
1~
0J
0L
0N
0P
0#"
0[
b0 B
00"
01"
0/"
1V
0S
0H
0z
0("
1'"
b1 @
b1 D
b1 y
b0 ?
b0 E
b0 G
b0 W
b0 F
0'
0"
1&"
b1000000001000 <
b1000000001000 Y
1e
1w
1u
1s
1q
0o
0m
1k
0i
0K
0M
0O
b0 )
b0 9
b0 C
b0 I
0Q
0^
0`
0b
b0 +
b0 ;
b0 \
0d
0j
0l
0n
b0 &
b0 7
b0 h
0p
0r
0t
0v
b0 %
b0 6
b0 T
b0 g
0x
0}
b0 =
b0 {
0!"
b0 >
b0 X
0$
b1001111 (
b1001111 8
b1001111 )"
b1001111 -"
b1001111 #
b1001111 5
b1001111 f
b1001111 ,"
b0 *
b0 :
b0 *"
b0 +"
1.
#3
0.
#5
1"
b1 =
b1 {
1!"
0~
1J
1L
1N
1P
1]
1_
1a
1c
b0 @
b0 D
b0 y
b1111 ?
b1111 E
b1111 G
b1111 W
b1111 F
b1111 !
b1111 3
b1111 A
b1111 R
b1111 U
b1111 Z
b1111 ""
b1111 ."
b10 B
0V
1S
1H
1z
0'"
0&"
b11010000010 <
b11010000010 Y
0e
1o
1i
b100 &
b100 7
b100 h
1l
1r
1t
1v
b1111 %
b1111 6
b1111 T
b1111 g
1x
b100011 >
b100011 X
1$
b111111011111 (
b111111011111 8
b111111011111 )"
b111111011111 -"
b11011111 #
b11011111 5
b11011111 f
b11011111 ,"
b1 *
b1 :
b1 *"
b1 +"
1,
#10
0,
#15
1p
b1101 &
b1101 7
b1101 h
1j
b1111 !
b1111 3
b1111 A
b1111 R
b1111 U
b1111 Z
b1111 ""
b1111 ."
b0 B
1V
0S
0H
0z
1'"
0"
1&"
b1000000001000 <
b1000000001000 Y
1e
1K
1M
1O
b1111 )
b1111 9
b1111 C
b1111 I
1Q
b0 =
b0 {
0!"
b1101000 >
b1101000 X
0$
1,
#16
b1000110 2
#20
0,
#25
1d
1b
1`
b1111 +
b1111 ;
b1111 \
1^
1[
0'"
0&"
b1001 <
b1001 Y
0e
0u
0s
0q
0i
b1101001 >
b1101001 X
1$
b111101010001 (
b111101010001 8
b111101010001 )"
b111101010001 -"
b1010001 #
b1010001 5
b1010001 f
b1010001 ,"
b10 *
b10 :
b10 *"
b10 +"
1,
#30
0,
#35
0v
0t
b101010001 (
b101010001 8
b101010001 )"
b101010001 -"
b1 %
b1 6
b1 T
b1 g
0r
b101 &
b101 7
b101 h
0j
0[
1'"
1&"
b1000000001000 <
b1000000001000 Y
1e
b101000 >
b101000 X
0$
1,
#36
b1100111 2
#40
0,
#45
0~
0J
1L
1N
0P
0]
0c
b0 @
b0 D
b0 y
b110 ?
b110 E
b110 G
b110 W
b110 F
b110 !
b110 3
b110 A
b110 R
b110 U
b110 Z
b110 ""
b110 ."
1#"
b10 B
0V
1H
1z
0'"
0&"
b11010000100 <
b11010000100 Y
0e
0w
0o
b101001 >
b101001 X
1$
b101000000 (
b101000000 8
b101000000 )"
b101000000 -"
b1000000 #
b1000000 5
b1000000 f
b1000000 ,"
b11 *
b11 :
b11 *"
b11 +"
1,
#50
0,
#55
b1000000 (
b1000000 8
b1000000 )"
b1000000 -"
b0 %
b0 6
b0 T
b0 g
0x
b100 &
b100 7
b100 h
0p
0#"
b0 B
1V
0H
0z
1'"
1&"
b1000000001000 <
b1000000001000 Y
1e
0K
b110 )
b110 9
b110 C
b110 I
0Q
b100000 >
b100000 X
0$
1,
#56
b10001000 2
#60
0,
#65
1~
0L
0N
0_
0a
b1 @
b1 D
b1 y
b0 ?
b0 E
b0 G
b0 W
b0 F
b0 !
b0 3
b0 A
b0 R
b0 U
b0 Z
b0 ""
b0 ."
b10 B
0V
1S
1H
1z
0'"
0&"
b11010000010 <
b11010000010 Y
0e
1w
1u
1s
1q
b100001 >
b100001 X
1$
b1001111 (
b1001111 8
b1001111 )"
b1001111 -"
b1001111 #
b1001111 5
b1001111 f
b1001111 ,"
b100 *
b100 :
b100 *"
b100 +"
1,
#70
0,
#75
1x
1v
1t
b111101001111 (
b111101001111 8
b111101001111 )"
b111101001111 -"
b1111 %
b1111 6
b1111 T
b1111 g
1r
b0 !
b0 3
b0 A
b0 R
b0 U
b0 Z
b0 ""
b0 ."
b0 B
1V
0S
0H
0z
1'"
1"
1&"
b1000000001000 <
b1000000001000 Y
1e
0M
b0 )
b0 9
b0 C
b0 I
0O
b1 =
b1 {
1!"
b100010 >
b100010 X
0$
1,
#80
0,
#85
0~
1J
1L
1N
1P
1]
1_
1a
1c
b0 @
b0 D
b0 y
b1111 ?
b1111 E
b1111 G
b1111 W
b1111 F
b1111 !
b1111 3
b1111 A
b1111 R
b1111 U
b1111 Z
b1111 ""
b1111 ."
b10 B
0V
1S
1H
1z
0'"
0&"
b11010000010 <
b11010000010 Y
0e
0w
0s
1m
0k
1i
b100011 >
b100011 X
1$
b111110101010 (
b111110101010 8
b111110101010 )"
b111110101010 -"
b10101010 #
b10101010 5
b10101010 f
b10101010 ,"
b101 *
b101 :
b101 *"
b101 +"
1,
#90
0,
#95
0x
b101010101010 (
b101010101010 8
b101010101010 )"
b101010101010 -"
b1010 %
b1010 6
b1010 T
b1010 g
0t
1n
0l
b1010 &
b1010 7
b1010 h
1j
b1111 !
b1111 3
b1111 A
b1111 R
b1111 U
b1111 Z
b1111 ""
b1111 ."
b0 B
1V
0S
0H
0z
1'"
0"
1&"
b1000000001000 <
b1000000001000 Y
1e
1K
1M
1O
b1111 )
b1111 9
b1111 C
b1111 I
1Q
b0 =
b0 {
0!"
b1010000 >
b1010000 X
0$
1,
#100
0,
#105
1|
0L
0N
0_
0c
b10 @
b10 D
b10 y
b1001 ?
b1001 E
b1001 G
b1001 W
b11001 F
b1010 !
b1010 3
b1010 A
b1010 R
b1010 U
b1010 Z
b1010 ""
b1010 ."
b11 B
0V
1S
1H
1z
0'"
0&"
b11011000010 <
b11011000010 Y
0e
0u
0i
b1010001 >
b1010001 X
1$
b101000101000 (
b101000101000 8
b101000101000 )"
b101000101000 -"
b101000 #
b101000 5
b101000 f
b101000 ,"
b110 *
b110 :
b110 *"
b110 +"
1,
#110
0,
#115
b100000101000 (
b100000101000 8
b100000101000 )"
b100000101000 -"
b1000 %
b1000 6
b1000 T
b1000 g
0v
b10 &
b10 7
b10 h
0j
0a
0|
1]
1c
b0 @
b0 D
b0 y
b1001 !
b1001 3
b1001 A
b1001 R
b1001 U
b1001 Z
b1001 ""
b1001 ."
1J
0N
b0 B
1V
0S
0H
0z
1'"
b1001 ?
b1001 E
b1001 G
b1001 W
b1001 F
1'
1&"
b1000000001000 <
b1000000001000 Y
1e
0M
b1001 )
b1001 9
b1001 C
b1001 I
0O
b10 =
b10 {
1}
b10100 >
b10100 X
0$
1,
#116
b10101001 2
#120
0,
#125
0'
b0 =
b0 {
0}
0J
0c
b1 ?
b1 E
b1 G
b1 W
b1 F
b1000 !
b1000 3
b1000 A
b1000 R
b1000 U
b1000 Z
b1000 ""
b1000 ."
b1 B
0V
1S
1z
0'"
0&"
b1001000010 <
b1001000010 Y
0e
1u
0m
1k
b10001 >
b10001 X
1$
b100001001010 (
b100001001010 8
b100001001010 )"
b100001001010 -"
b1001010 #
b1001010 5
b1001010 f
b1001010 ,"
b111 *
b111 :
b111 *"
b111 +"
1,
#130
0,
#135
b101001001010 (
b101001001010 8
b101001001010 )"
b101001001010 -"
b1010 %
b1010 6
b1010 T
b1010 g
1v
0n
b100 &
b100 7
b100 h
1l
1J
1]
1c
b1001 ?
b1001 E
b1001 G
b1001 W
b1001 F
b1001 !
b1001 3
b1001 A
b1001 R
b1001 U
b1001 Z
b1001 ""
b1001 ."
b0 B
1V
0S
0z
1'"
1&"
b1000000001000 <
b1000000001000 Y
1e
b100000 >
b100000 X
0$
1,
#136
b11001010 2
#140
0,
#145
1N
0P
1a
0c
b1010 ?
b1010 E
b1010 G
b1010 W
b1010 F
b1010 !
b1010 3
b1010 A
b1010 R
b1010 U
b1010 Z
b1010 ""
b1010 ."
b10 B
0V
1S
1H
1z
0'"
0&"
b11010000010 <
b11010000010 Y
0e
0u
1s
1m
0k
b100001 >
b100001 X
1$
b101000101100 (
b101000101100 8
b101000101100 )"
b101000101100 -"
b101100 #
b101100 5
b101100 f
b101100 ,"
b1000 *
b1000 :
b1000 *"
b1000 +"
1,
#150
0,
#155
0v
b110000101100 (
b110000101100 8
b110000101100 )"
b110000101100 -"
b1100 %
b1100 6
b1100 T
b1100 g
1t
1n
b10 &
b10 7
b10 h
0l
b1010 !
b1010 3
b1010 A
b1010 R
b1010 U
b1010 Z
b1010 ""
b1010 ."
b0 B
1V
0S
0H
0z
1'"
1&"
b1000000001000 <
b1000000001000 Y
1e
1O
b1010 )
b1010 9
b1010 C
b1010 I
0Q
b10000 >
b10000 X
0$
1,
#160
0,
#165
1|
1L
1_
0a
b10 @
b10 D
b10 y
b1110 ?
b1110 E
b1110 G
b1110 W
b11110 F
b1100 !
b1100 3
b1100 A
b1100 R
b1100 U
b1100 Z
b1100 ""
b1100 ."
b1 B
0V
1S
1z
0'"
0&"
b1001000010 <
b1001000010 Y
0e
1w
0s
0q
1i
b10001 >
b10001 X
1$
b110010100001 (
b110010100001 8
b110010100001 )"
b110010100001 -"
b10100001 #
b10100001 5
b10100001 f
b10100001 ,"
b1001 *
b1001 :
b1001 *"
b1001 +"
1,
#170
0,
#175
1x
0t
b110100001 (
b110100001 8
b110100001 )"
b110100001 -"
b1 %
b1 6
b1 T
b1 g
0r
b1010 &
b1010 7
b1010 h
1j
0_
0|
0L
1a
b0 @
b0 D
b0 y
b1010 ?
b1010 E
b1010 G
b1010 W
b1010 F
b1010 !
b1010 3
b1010 A
b1010 R
b1010 U
b1010 Z
b1010 ""
b1010 ."
b0 B
1V
0S
0z
1'"
1'
1&"
b1000000001000 <
b1000000001000 Y
1e
b10 =
b10 {
1}
b1010100 >
b1010100 X
0$
1,
#176
b11101011 2
#180
0,
#185
0'
b0 =
b0 {
0}
1P
0]
0a
1c
b1011 ?
b1011 E
b1011 G
b1011 W
b1011 F
b1 !
b1 3
b1 A
b1 R
b1 U
b1 Z
b1 ""
b1 ."
b11 B
0V
1S
1H
1z
0'"
0&"
b11011000010 <
b11011000010 Y
0e
1u
1q
1k
b1010001 >
b1010001 X
1$
b111101011 (
b111101011 8
b111101011 )"
b111101011 -"
b11101011 #
b11101011 5
b11101011 f
b11101011 ,"
b1010 *
b1010 :
b1010 *"
b1010 +"
1,
#190
0,
#195
1v
b101111101011 (
b101111101011 8
b101111101011 )"
b101111101011 -"
b1011 %
b1011 6
b1011 T
b1011 g
1r
b1110 &
b1110 7
b1110 h
1l
1a
1]
0_
1c
b1011 !
b1011 3
b1011 A
b1011 R
b1011 U
b1011 Z
b1011 ""
b1011 ."
0L
1N
1P
b0 B
1V
0S
0H
0z
1'"
b1011 ?
b1011 E
b1011 G
b1011 W
b1011 F
1&"
b1000000001000 <
b1000000001000 Y
1e
b1011 )
b1011 9
b1011 C
b1011 I
1Q
b1110000 >
b1110000 X
0$
1,
#196
b100001100 2
#200
0,
#205
0J
1L
0N
0P
b100 ?
b100 E
b100 G
b100 W
b100 F
b100 B
0V
1S
1H
1z
0'"
0&"
b11100000010 <
b11100000010 Y
0e
0w
0u
0q
1o
0m
b1110001 >
b1110001 X
1$
b101111010000 (
b101111010000 8
b101111010000 )"
b101111010000 -"
b11010000 #
b11010000 5
b11010000 f
b11010000 ,"
b1011 *
b1011 :
b1011 *"
b1011 +"
1,
#210
0,
#215
0x
0v
b11010000 (
b11010000 8
b11010000 )"
b11010000 -"
b0 %
b0 6
b0 T
b0 g
0r
1p
b1101 &
b1101 7
b1101 h
0n
0]
0a
0c
1_
b100 !
b100 3
b100 A
b100 R
b100 U
b100 Z
b100 ""
b100 ."
0J
0N
0P
b0 B
1V
0S
0H
0z
1'"
b100 ?
b100 E
b100 G
b100 W
b100 F
1&"
b1000000001000 <
b1000000001000 Y
1e
0K
1M
0O
b100 )
b100 9
b100 C
b100 I
0Q
b1101000 >
b1101000 X
0$
1,
#216
b101001110 2
#220
0,
#225
0d
0b
b100 +
b100 ;
b100 \
0^
1[
0'"
0&"
b1001 <
b1001 Y
0e
0i
b1101001 >
b1101001 X
1$
b1010000 (
b1010000 8
b1010000 )"
b1010000 -"
b1010000 #
b1010000 5
b1010000 f
b1010000 ,"
b1100 *
b1100 :
b1100 *"
b1100 +"
1,
#230
0,
#235
b101 &
b101 7
b101 h
0j
0[
1'"
1&"
b1000000001000 <
b1000000001000 Y
1e
b101000 >
b101000 X
0$
1,
#236
b1110 -
b1110 4
b1110 $"
b101101111 2
#240
0,
#245
0~
1J
1L
1N
0P
1]
1a
b0 @
b0 D
b0 y
b1110 ?
b1110 E
b1110 G
b1110 W
b1110 F
b1110 !
b1110 3
b1110 A
b1110 R
b1110 U
b1110 Z
b1110 ""
b1110 ."
1#"
b10 B
0V
1H
1z
0'"
0&"
b11010000100 <
b11010000100 Y
0e
1m
b101001 >
b101001 X
1$
b1110000 (
b1110000 8
b1110000 )"
b1110000 -"
b1110000 #
b1110000 5
b1110000 f
b1110000 ,"
b1101 *
b1101 :
b1101 *"
b1101 +"
1,
#250
0,
#255
b111 &
b111 7
b111 h
1n
0#"
b0 B
1V
0H
0z
1'"
1&"
b1000000001000 <
b1000000001000 Y
1e
1K
b1110 )
b1110 9
b1110 C
b1110 I
1O
b111000 >
b111000 X
0$
1,
#256
b110010000 2
#260
0,
#265
10"
11"
1/"
0&"
b1000000111000 <
b1000000111000 Y
0e
0o
0m
0k
b111001 >
b111001 X
1$
b0 (
b0 8
b0 )"
b0 -"
b0 #
b0 5
b0 f
b0 ,"
b1110 *
b1110 :
b1110 *"
b1110 +"
1,
#270
0,
#275
1x
1v
1t
b1111 %
b1111 6
b1111 T
b1111 g
1r
0p
b100 &
b100 7
b100 h
0n
00"
01"
0/"
1&"
b1000000001000 <
b1000000001000 Y
1e
1w
1u
1s
1q
1k
b100000 >
b100000 X
0$
b111101001111 (
b111101001111 8
b111101001111 )"
b111101001111 -"
b1001111 #
b1001111 5
b1001111 f
b1001111 ,"
b1111 *
b1111 :
b1111 *"
b1111 +"
1,
#280
0,
#285
1P
1c
b1111 ?
b1111 E
b1111 G
b1111 W
b1111 F
b1111 !
b1111 3
b1111 A
b1111 R
b1111 U
b1111 Z
b1111 ""
b1111 ."
b10 B
0V
1S
1H
1z
0'"
0&"
b11010000010 <
b11010000010 Y
0e
0u
0s
0q
1o
1m
b100001 >
b100001 X
1$
b111101110001 (
b111101110001 8
b111101110001 )"
b111101110001 -"
b1110001 #
b1110001 5
b1110001 f
b1110001 ,"
b10000 *
b10000 :
b10000 *"
b10000 +"
1,
#290
0,
#295
0v
0t
b101110001 (
b101110001 8
b101110001 )"
b101110001 -"
b1 %
b1 6
b1 T
b1 g
0r
1p
b111 &
b111 7
b111 h
1n
b1111 !
b1111 3
b1111 A
b1111 R
b1111 U
b1111 Z
b1111 ""
b1111 ."
b0 B
1V
0S
0H
0z
1'"
1&"
b1000000001000 <
b1000000001000 Y
1e
b1111 )
b1111 9
b1111 C
b1111 I
1Q
b111000 >
b111000 X
0$
1,
#300
0,
#305
10"
11"
1/"
0&"
b1000000111000 <
b1000000111000 Y
0e
0m
0k
b111001 >
b111001 X
1$
b100010001 (
b100010001 8
b100010001 )"
b100010001 -"
b10001 #
b10001 5
b10001 f
b10001 ,"
b10001 *
b10001 :
b10001 *"
b10001 +"
1,
#310
0,
#315
0x
1v
b1010 %
b1010 6
b1010 T
b1010 g
1r
0p
b100 &
b100 7
b100 h
0n
00"
01"
0/"
1&"
b1000000001000 <
b1000000001000 Y
1e
0w
1u
1q
0o
1k
b100000 >
b100000 X
0$
b101001001010 (
b101001001010 8
b101001001010 )"
b101001001010 -"
b1001010 #
b1001010 5
b1001010 f
b1001010 ,"
b10010 *
b10010 :
b10010 *"
b10010 +"
1,
#320
0,
#325
0L
0P
0_
0c
b1010 ?
b1010 E
b1010 G
b1010 W
b1010 F
b1010 !
b1010 3
b1010 A
b1010 R
b1010 U
b1010 Z
b1010 ""
b1010 ."
b10 B
0V
1S
1H
1z
0'"
0&"
b11010000010 <
b11010000010 Y
0e
0q
1o
1m
b100001 >
b100001 X
1$
b101001110010 (
b101001110010 8
b101001110010 )"
b101001110010 -"
b1110010 #
b1110010 5
b1110010 f
b1110010 ,"
b10011 *
b10011 :
b10011 *"
b10011 +"
1,
#330
0,
#335
b1001110010 (
b1001110010 8
b1001110010 )"
b1001110010 -"
b10 %
b10 6
b10 T
b10 g
0r
1p
b111 &
b111 7
b111 h
1n
b1010 !
b1010 3
b1010 A
b1010 R
b1010 U
b1010 Z
b1010 ""
b1010 ."
b0 B
1V
0S
0H
0z
1'"
1&"
b1000000001000 <
b1000000001000 Y
1e
0M
b1010 )
b1010 9
b1010 C
b1010 I
0Q
b111000 >
b111000 X
0$
1,
#340
0,
#345
10"
11"
1/"
0&"
b1000000111000 <
b1000000111000 Y
0e
0o
0k
b111001 >
b111001 X
1$
b1000100010 (
b1000100010 8
b1000100010 )"
b1000100010 -"
b100010 #
b100010 5
b100010 f
b100010 ,"
b10100 *
b10100 :
b10100 *"
b10100 +"
1,
#350
0,
#355
1x
b1 %
b1 6
b1 T
b1 g
0v
0p
b100 &
b100 7
b100 h
0n
00"
01"
0/"
1&"
b1000000001000 <
b1000000001000 Y
1e
1w
0u
0m
1k
b100000 >
b100000 X
0$
b101000001 (
b101000001 8
b101000001 )"
b101000001 -"
b1000001 #
b1000001 5
b1000001 f
b1000001 ,"
b10101 *
b10101 :
b10101 *"
b10101 +"
1,
#360
0,
#365
0J
0N
1P
0]
0a
1c
b1 ?
b1 E
b1 G
b1 W
b1 F
b1 !
b1 3
b1 A
b1 R
b1 U
b1 Z
b1 ""
b1 ."
b10 B
0V
1S
1H
1z
0'"
0&"
b11010000010 <
b11010000010 Y
0e
1u
1o
1m
b100001 >
b100001 X
1$
b101110011 (
b101110011 8
b101110011 )"
b101110011 -"
b1110011 #
b1110011 5
b1110011 f
b1110011 ,"
b10110 *
b10110 :
b10110 *"
b10110 +"
1,
#370
0,
#375
b1101110011 (
b1101110011 8
b1101110011 )"
b1101110011 -"
b11 %
b11 6
b11 T
b11 g
1v
1p
b111 &
b111 7
b111 h
1n
b1 !
b1 3
b1 A
b1 R
b1 U
b1 Z
b1 ""
b1 ."
b0 B
1V
0S
0H
0z
1'"
1&"
b1000000001000 <
b1000000001000 Y
1e
0K
0O
b1 )
b1 9
b1 C
b1 I
1Q
b111000 >
b111000 X
0$
1,
#380
0,
#385
10"
11"
1/"
0&"
b1000000111000 <
b1000000111000 Y
0e
0k
b111001 >
b111001 X
1$
b1100110011 (
b1100110011 8
b1100110011 )"
b1100110011 -"
b110011 #
b110011 5
b110011 f
b110011 ,"
b10111 *
b10111 :
b10111 *"
b10111 +"
1,
#390
0,
#395
0x
b0 %
b0 6
b0 T
b0 g
0v
b110 &
b110 7
b110 h
0p
00"
01"
0/"
1&"
b1000000001000 <
b1000000001000 Y
1e
0w
0u
0o
1k
b110000 >
b110000 X
0$
b1100000 (
b1100000 8
b1100000 )"
b1100000 -"
b1100000 #
b1100000 5
b1100000 f
b1100000 ,"
b11000 *
b11000 :
b11000 *"
b11000 +"
1,
#400
0,
#405
0~
1J
1L
1N
0P
1]
1_
1a
0c
b0 @
b0 D
b0 y
b1110 ?
b1110 E
b1110 G
b1110 W
b1110 F
b1110 2"
b1110 !
b1110 3
b1110 A
b1110 R
b1110 U
b1110 Z
b1110 ""
b1110 ."
b10 B
10"
1/"
0V
1H
1z
0&"
b1011010100000 <
b1011010100000 Y
0e
0m
0k
b110001 >
b110001 X
1$
b0 (
b0 8
b0 )"
b0 -"
b0 #
b0 5
b0 f
b0 ,"
b11001 *
b11001 :
b11001 *"
b11001 +"
1,
#410
0,
#415
b1 %
b1 6
b1 T
b1 g
1x
1]
1_
1a
0c
b0 B
00"
0/"
1V
0H
0z
b1110 !
b1110 3
b1110 A
b1110 R
b1110 U
b1110 Z
b1110 ""
b1110 ."
1&"
b1000000001000 <
b1000000001000 Y
1e
1w
1m
1k
bx 2"
1K
1M
1O
b1110 )
b1110 9
b1110 C
b1110 I
0Q
b110000 >
b110000 X
0$
b101100001 (
b101100001 8
b101100001 )"
b101100001 -"
b1100001 #
b1100001 5
b1100001 f
b1100001 ,"
b11010 *
b11010 :
b11010 *"
b11010 +"
1,
#420
0,
#425
0~
1J
1L
1N
1P
1]
1_
1a
1c
b0 @
b0 D
b0 y
b1111 ?
b1111 E
b1111 G
b1111 W
b1111 F
b1111 2"
b1111 !
b1111 3
b1111 A
b1111 R
b1111 U
b1111 Z
b1111 ""
b1111 ."
b10 B
10"
1/"
0V
1H
1z
0&"
b1011010100000 <
b1011010100000 Y
0e
1o
0m
0k
b110001 >
b110001 X
1$
b100010001 (
b100010001 8
b100010001 )"
b100010001 -"
b10001 #
b10001 5
b10001 f
b10001 ,"
b11011 *
b11011 :
b11011 *"
b11011 +"
1,
#430
0,
#435
0x
b10 %
b10 6
b10 T
b10 g
1v
1]
1_
1a
1c
b0 B
00"
0/"
1V
0H
0z
b1111 !
b1111 3
b1111 A
b1111 R
b1111 U
b1111 Z
b1111 ""
b1111 ."
1&"
b1000000001000 <
b1000000001000 Y
1e
0w
1u
0o
1m
1k
bx 2"
b1111 )
b1111 9
b1111 C
b1111 I
1Q
b110000 >
b110000 X
0$
b1001100010 (
b1001100010 8
b1001100010 )"
b1001100010 -"
b1100010 #
b1100010 5
b1100010 f
b1100010 ,"
b11100 *
b11100 :
b11100 *"
b11100 +"
1,
#440
0,
